{
    "KPlugin": {
        "Description": "A panel to display the official documentation of various backends",
        "Description[ca@valencia]": "Un quadro per a mostrar la documentació oficial de diversos dorsals",
        "Description[ca]": "Un plafó per a mostrar la documentació oficial de diversos dorsals",
        "Description[de]": "Eine Leiste zur Anzeige der offiziellen Dokumentation für verschiedene Module",
        "Description[el]": "Ένας πίνακας για την εμφάνιση της επίσημης τεκμηρίωσης διαφόρων συστημάτων υποστήριξης",
        "Description[en_GB]": "A panel to display the official documentation of various backends",
        "Description[es]": "Un panel para mostrar la documentación oficial de diversos motores",
        "Description[fr]": "Un panneau pour afficher la documentation officielle des différents moteurs.",
        "Description[ia]": "Un pannello per monstrar le documentation official de varie retroadministrationes",
        "Description[ko]": "다양한 백엔드의 공식 문서를 표시하는 패널",
        "Description[nl]": "Een paneel voor de officiële documentatie van diverse backends",
        "Description[pl]": "Okno do wyświetlania oficjalnej dokumentacji dla różnych silników",
        "Description[pt]": "Um painel para mostrar a documentação oficial das várias infra-estruturas",
        "Description[pt_BR]": "Um painel para mostrar a documentação oficial de várias infraestruturas",
        "Description[ru]": "Панель для просмотра официальной документации различных систем",
        "Description[sl]": "Plošča za prikaz uradne dokumentacije iz različnih ozadij",
        "Description[sv]": "En panel för att visa den officiella dokumentationen av diverse bakgrundsprogram",
        "Description[tr]": "Çeşitli arka uçların belgelendirmelerini görüntülemek için bir panel",
        "Description[uk]": "Панель для показу офіційної документації до різних модулів обробки",
        "Description[x-test]": "xxA panel to display the official documentation of various backendsxx",
        "Description[zh_CN]": "显示各种后端官方文档的面板",
        "Icon": "",
        "Id": "DocumentationPanel",
        "License": "GPL",
        "Name": "Documentation",
        "Name[ar]": "التّوثيق",
        "Name[ca@valencia]": "Documentació",
        "Name[ca]": "Documentació",
        "Name[cs]": "Dokumentace",
        "Name[de]": "Dokumentation",
        "Name[el]": "Τεκμηρίωση",
        "Name[en_GB]": "Documentation",
        "Name[es]": "Documentación",
        "Name[fr]": "Documentation",
        "Name[ia]": "Documentation",
        "Name[ko]": "문서",
        "Name[nl]": "Documentatie",
        "Name[pl]": "Dokumentacja",
        "Name[pt]": "Documentação",
        "Name[pt_BR]": "Documentação",
        "Name[ru]": "Документация",
        "Name[sl]": "Dokumentacija",
        "Name[sv]": "Dokumentation",
        "Name[tr]": "Belgelendirme",
        "Name[uk]": "Документація",
        "Name[x-test]": "xxDocumentationxx",
        "Name[zh_CN]": "文档",
        "ServiceTypes": [
            "Cantor/PanelPlugin"
        ]
    },
    "RequiredExtensions": ""
}
