{
    "KPlugin": {
        "Description": "Backend for the Scilab Scientific Programming Environment",
        "Description[ca@valencia]": "Dorsal per a l'entorn de programació científic Scilab",
        "Description[ca]": "Dorsal per a l'entorn de programació científic Scilab",
        "Description[cs]": "Podpůrná vrstva pro vědecké programovací prostředí Scilab",
        "Description[de]": "Modul für die wissenschaftliche Programmierumgebung Scilab",
        "Description[el]": "Σύστημα υποστήριξης για το περιβάλλον επιστημονικού προγραμματισμού Scilab",
        "Description[en_GB]": "Backend for the Scilab Scientific Programming Environment",
        "Description[es]": "Motor para el entorno de programación científico Scilab",
        "Description[et]": "Scilabi teadusliku programmeerimise keskkonna taustaprogramm",
        "Description[fi]": "Scilabin, tieteellisen ohjelmointiympäristön, taustajärjestelmä",
        "Description[fr]": "Moteur pour l'environnement de programmation scientifique « Scilab »",
        "Description[gl]": "Infraestrutura para o ambiente científico de programación Scilab",
        "Description[ia]": "Retroadministration per le Ambiente de Programmar Scientific de Scilab",
        "Description[it]": "Backend per l'ambiente scientifico di programmazione Scilab",
        "Description[ko]": "Scilab 과학 프로그래밍 환경 백엔드",
        "Description[nl]": "Backend voor de Scilab wetenschappelijke programmeeromgeving",
        "Description[nn]": "Motor for det Scilab «Scientific Programming Environment»",
        "Description[pl]": "Silnika dla naukowego środowiska programistycznego Scilab",
        "Description[pt]": "Infra-Estrutura do Ambiente de Programação Científica com o Scilab",
        "Description[pt_BR]": "Infraestrutura do ambiente de programação científica Scilab",
        "Description[ru]": "Поддержка программного окружения Scilab для инженерных и научных расчётов",
        "Description[sk]": "Backend pre vedecké programovacie prostredie Scilab",
        "Description[sl]": "Zaledje za znanstveno programersko okolje Scilab",
        "Description[sv]": "Bakgrundsprogram för Scilab vetenskaplig programmeringsmiljö",
        "Description[tr]": "Scilab Bilimsel Programlama Ortamı için arka uç",
        "Description[uk]": "Модуль наукового середовища програмування Scilab",
        "Description[x-test]": "xxBackend for the Scilab Scientific Programming Environmentxx",
        "Description[zh_CN]": "Scilab 科学编程环境的后端",
        "Description[zh_TW]": "Scilab 科學程式環境的後端介面",
        "Icon": "scilabbackend",
        "Id": "Scilab",
        "License": "GPL",
        "Name": "Scilab",
        "Name[ar]": "سايلاب",
        "Name[ca@valencia]": "Scilab",
        "Name[ca]": "Scilab",
        "Name[cs]": "Scilab",
        "Name[de]": "Scilab",
        "Name[el]": "Scilab",
        "Name[en_GB]": "Scilab",
        "Name[es]": "Scilab",
        "Name[et]": "Scilab",
        "Name[fi]": "Scilab",
        "Name[fr]": "Scilab",
        "Name[gl]": "Scilab",
        "Name[ia]": "Scilab",
        "Name[it]": "Scilab",
        "Name[ko]": "Scilab",
        "Name[nl]": "Scilab",
        "Name[nn]": "Scilab",
        "Name[pl]": "Scilab",
        "Name[pt]": "Scilab",
        "Name[pt_BR]": "Scilab",
        "Name[ru]": "Scilab",
        "Name[sk]": "Scilab",
        "Name[sl]": "Scilab",
        "Name[sv]": "Scilab",
        "Name[tr]": "Scilab",
        "Name[uk]": "Scilab",
        "Name[x-test]": "xxScilabxx",
        "Name[zh_CN]": "Scilab",
        "Name[zh_TW]": "Scilab",
        "Website": "https://scilab.org/"
    }
}
