{
    "KPlugin": {
        "Description": "An Assistant dialog to simplify solving of equations",
        "Description[ca@valencia]": "Un diàleg assistent per a simplificar la resolució d'equacions",
        "Description[ca]": "Un diàleg assistent per a simplificar la resolució d'equacions",
        "Description[cs]": "Pomocný dialog pro zjednodušení řešení rovnic",
        "Description[de]": "Ein Assistent, um das Lösen von Gleichungen zu vereinfachen",
        "Description[el]": "Βοηθητικός διάλογος για απλούστευση της επίλυσης εξισώσεων",
        "Description[en_GB]": "An Assistant dialogue to simplify solving of equations",
        "Description[es]": "Un diálogo de asistente para simplificar la resolución de ecuaciones",
        "Description[et]": "Võrrandite lahendamist lihtsustav abiline",
        "Description[fi]": "Apuikkuna helpottamaan yhtälöiden ratkaisemista",
        "Description[fr]": "Une boîte de dialogue d'assistant simplifiant la résolution d'équations",
        "Description[gl]": "Un diálogo auxiliar para simplificar a resolución de ecuacións",
        "Description[ia]": "Un dialogo Assistente per simplificar solver equationes",
        "Description[it]": "Un assistente che semplifica la risoluzione di equazioni",
        "Description[ko]": "수식 풀이를 간단하게 할 수 있도록 해 주는 도우미 대화 상자",
        "Description[nl]": "Een assistentdialoog voor het vereenvoudigen van het oplossen van vergelijkingen",
        "Description[nn]": "Eit hjelpevindauge for løysing av likningar",
        "Description[pl]": "Pomocnik upraszczający rozwiązywanie równań",
        "Description[pt]": "Uma janela assistente para simplificar a resolução de equações",
        "Description[pt_BR]": "Um assistente para simplificar a resolução de equações",
        "Description[ru]": "Диалоговое окно, упрощающее процесс решения уравнений",
        "Description[sk]": "Asistenčný dialóg na uľahčenie výpočtu rovníc",
        "Description[sl]": "Pomočnik, ki poenostavi reševanje enačb",
        "Description[sv]": "En dialogruta med en guide för att förenkla lösning av ekvationer",
        "Description[tr]": "Eşitlikleri çözmeye yardımcı olan asistan pencere",
        "Description[uk]": "Діалогове вікно помічника у розв’язанні рівнянь",
        "Description[x-test]": "xxAn Assistant dialog to simplify solving of equationsxx",
        "Description[zh_CN]": "用于简化解方程式运算的助手对话框",
        "Description[zh_TW]": "簡化解方程式的小助手對話框",
        "Icon": "dialog-ok",
        "Id": "Solve",
        "License": "GPL",
        "Name": "Solve",
        "Name[ar]": "حل",
        "Name[ca@valencia]": "Resol",
        "Name[ca]": "Resol",
        "Name[cs]": "Vyřešit",
        "Name[da]": "Løs",
        "Name[de]": "Lösen",
        "Name[el]": "Επίλυση",
        "Name[en_GB]": "Solve",
        "Name[es]": "Resolver",
        "Name[et]": "Lahendamine",
        "Name[fi]": "Ratkaise",
        "Name[fr]": "Résoudre",
        "Name[gl]": "Resolver",
        "Name[ia]": "Solve...",
        "Name[it]": "Risolvi",
        "Name[ko]": "풀기",
        "Name[nl]": "Oplossen",
        "Name[nn]": "Løys",
        "Name[pl]": "Rozwiązywanie",
        "Name[pt]": "Resolução",
        "Name[pt_BR]": "Solucionar",
        "Name[ru]": "Решение уравнений",
        "Name[sk]": "Riešiť",
        "Name[sl]": "Reši",
        "Name[sv]": "Lös",
        "Name[tr]": "Çözümle",
        "Name[uk]": "Розв’язати",
        "Name[x-test]": "xxSolvexx",
        "Name[zh_CN]": "解答",
        "Name[zh_TW]": "解決"
    },
    "RequiredExtensions": "CASExtension"
}
